{
    "id":435, // ID бронирования
    "prepayment":"1", // Вид предоплаты: без предоплаты / предоплата за первую ночь / пр. за весь период /
    "arrive_date":1468530000,  // Дата и время поселения
    "departure_date":1468616400,  // Дата и время выезда
    "room_id":"203", // Номер комнаты
    "adults":2,  // Кол гостей
    "children":0,  // Дети
    "user":{
        "uid":"19",  // ID клиента,
        "type":"client",  // тип - тур агент/клиент
        "first_name":"dsfds",  // ФИО гостя
        "last_name":"sdfsd",
        "address":"sdfsd",  // адресс
        "email":"doriangray@ukr.net", // email
        "phone":"sds",  // телефон
        "passport":"scan_1416202325.jpg" // паспорт
    },
    "residence_dc":0, // Скидка проживание
    "residence_cost":125,  // Стоимость проживания за номер
    "adult_guests":[
        {
            "first_name":"Sergey", // ФИ проживающего, , , , паспорт
            "last_name":"Suzdaltsev",
            "email":"doriangray@ukr.net", // email
            "phone":"380683573536",  // телефон
            "address":"sdfsd", //  адресс
            "passport":"scan_1416202325.jpg" // паспорт
        },
        {
            "first_name":"",
            "last_name":"",
            "email":"",
            "phone":"",
            "address":null,
            "passport":null
        }
    ],
    "status":null,  // Статусы бронирования: согласно ID бронирования
    "cost_residence":125,
    "cost_total":199,
    "cost_total_currency":"3",
    "services":[
        {
            "title":,   // название, кол дней, /детей, стоимость.
            "id":5, // ID услуги
            "adults":"2", // кол взрослых
            "children":"0", // детей
            "outer_id":"11"
        }
    ],
    "excursions":[
        {
            "title": // название экскурсии
            "day":null,
            "date":1468530000, // дата
            "adults":"2",  // кол взрослых
            "children":"0",  // детей
            "outer_id":null
        }
    ],
    "transfer":[
        'title' // название
        'price' // цена
        'outerId'
    ],
    "paymentsHistory":[
        {
            "id"
            "payment_id" // id платежа
            "user_id" // пользователь
            "amount" // сумма
            "date" // дата
            "pay_way" // способ оплаты
            "status" // статус
        }
    ],
    "comment":"" //  комментарий
}